{
  "name": "api",
  "version": "1.0.0",
  "description": "api para la aplicacion de dealer",
  "main": "index.js",
  "scripts": {
    "test": "cross-env NODE_ENV=test jest",
    "testdev": "jest",
    "start": "cross-env NODE_ENV=cloud node  ./dist/server.js",
    "dev": "cross-env NODE_ENV=development babel-node  ./src/server.js",
    "cloud": "cross-env NODE_ENV=cloud babel-node  ./src/server.js",
    "debug": "cross-env NODE_ENV=development babel-node --nolazy --inspect-brk=9229  server.js",
    "build": "babel  src -d dist"
  },
  "author": "wander guzman",
  "license": "ISC",
  "dependencies": {
    "apollo-server-core": "^2.21.0",
    "apollo-server-express": "^2.21.0",
    "bcrypt": "^5.0.1",
    "bcryptjs": "^2.4.3",
    "body-parser": "^1.19.0",
    "cors": "^2.8.5",
    "dataloader": "^2.0.0",
    "debug": "^4.3.1",
    "dotenv": "^8.2.0",
    "express": "^4.17.1",
    "express-graphql": "^0.12.0",
    "express-jwt": "^6.0.0",
    "faker": "^5.4.0",
    "fs": "0.0.2",
    "graphql": "^15.5.0",
    "graphql-date": "^1.0.3",
    "graphql-middleware": "^6.0.4",
    "graphql-shield": "^7.5.0",
    "graphql-tag": "^2.11.0",
    "graphql-tools": "^7.0.4",
    "jsonwebtoken": "^8.5.1",
    "knex": "^0.21.19",
    "lodash": "^4.17.21",
    "mysql": "^2.18.1",
    "mysql2": "^2.2.5",
    "node-fpe": "^2.0.1",
    "npm-check-updates": "^11.1.10",
    "objection": "^2.2.14",
    "path": "^0.12.7",
    "require-dir": "^1.2.0"
  },
  "devDependencies": {
    "@babel/cli": "^7.13.10",
    "@babel/core": "^7.13.10",
    "@babel/plugin-proposal-nullish-coalescing-operator": "^7.13.8",
    "@babel/plugin-proposal-optional-chaining": "^7.13.8",
    "@babel/preset-env": "^7.13.10",
    "add": "^2.0.6",
    "babel-cli": "^6.26.0",
    "babel-core": "^6.26.3",
    "babel-polyfill": "^6.26.0",
    "babel-preset-env": "^1.7.0",
    "babel-preset-es2015": "^6.24.1",
    "babel-preset-stage-2": "^6.24.1",
    "babel-register": "^6.26.0",
    "cross-env": "^7.0.3",
    "graphql-tester": "^0.0.5",
    "jest": "^26.6.3",
    "yarn": "^1.22.10"
  }
}
